Mapping: Creating lines from points – Digital History Methods
…
The data

The data is available through the datasets folder on the class syllabus.

movements <- read_csv("https://raw.githubusercontent.com/jessesadler/vt5444s26/refs/heads/main/datasets/movements.csv")
locations <- read_csv("https://raw.githubusercontent.com/jessesadler/vt5444s26/refs/heads/main/datasets/locations.csv")

The movements data shows the date and location of siblings from two different families at the end of the 16th century.

movements

# A tibble: 74 × 3
   person                 place     date      
   <chr>                  <chr>     <date>    
 1 Andries van der Meulen Antwerp   1584-07-01
 2 Andries van der Meulen Bremen    1585-09-01
 3 Anna van der Meulen    Cologne   1584-07-01
 4 Anna van der Meulen    Bremen    1588-06-01
 5 Anna van der Meulen    Stade     1588-08-01
 6 Anna van der Meulen    Bremen    1592-03-01
 7 Sara van der Meulen    Antwerp   1584-07-01
 8 Sara van der Meulen    Bremen    1585-09-01
 9 Sara van der Meulen    Frankfurt 1586-03-01
10 Sara van der Meulen    Cologne   1586-05-01
# ℹ 64 more rows

The locations data has the latitude and longitude values for the locations that these individuals visited in their travels. This data could have been created by geocoding the locations with tidygeocoder as shown in Mapping with R. It is best practice to save this output to a data folder so you are not re-geocoding the locations every time you run the code.

locations

# A tibble: 21 × 3
   location          lat   lng
   <chr>           <dbl> <dbl>
 1 Antwerp          51.2  4.40
 2 Bremen           53.1  8.81
 3 Cologne          50.9  6.96
 4 Stade            53.6  9.48
 5 Frankfurt        50.1  8.68
 6 Utrecht          52.1  5.13
 7 Leiden           52.2  4.48
 8 Geertruidenberg  51.7  4.85
 9 Bergen op Zoom   51.5  4.29
10 The Hague        52.1  4.31
# ℹ 11 more rows
…
4

Rename the place column to destination to better represent the nature of the data in the column.

5

Remove the NAs introduced into the start column by lag() where there was no previous location.

6

Add an id column to keep track of each journey. This will be used for grouping in the next step.

movements_wide

# A tibble: 63 × 5
   journey_id person                 start      destination date      
        <int> <chr>                  <chr>      <chr>       <date>    
 1          1 Daniel van der Meulen  Antwerp    Middelburg  1584-08-01
 2          2 Daniel van der Meulen  Middelburg Delft       1584-09-01
 3          3 Jan della Faille       Antwerp    Leiden      1584-11-01
 4          4 Daniel van der Meulen  Delft      Haarlem     1584-12-01
 5          5 Daniel van der Meulen  Haarlem    Delft       1585-02-01
 6          6 Andries van der Meulen Antwerp    Bremen      1585-09-01
 7          7 Sara van der Meulen    Antwerp    Bremen      1585-09-01
 8          8 Anna della Faille      Haarlem    Antwerp     1585-09-01
 9          9 Steven della Faille    Dordrecht  Antwerp     1585-09-01
10         10 Jacques della Faille   Haarlem    Hamburg     1585-10-01
# ℹ 53 more rows
…
The columns to pivot.

2

The name of the column for the column names that will be pivoted.

3

The name of the column for the values in the pivoted columns.

The meaning of the arguments are more clear when you see the outcome.

movements_long

# A tibble: 126 × 5
   journey_id person                date       type        location  
        <int> <chr>                 <date>     <chr>       <chr>     
 1          1 Daniel van der Meulen 1584-08-01 start       Antwerp   
 2          1 Daniel van der Meulen 1584-08-01 destination Middelburg
 3          2 Daniel van der Meulen 1584-09-01 start       Middelburg
 4          2 Daniel van der Meulen 1584-09-01 destination Delft     
 5          3 Jan della Faille      1584-11-01 start       Antwerp   
 6          3 Jan della Faille      1584-11-01 destination Leiden    
 7          4 Daniel van der Meulen 1584-12-01 start       Delft     
 8          4 Daniel van der Meulen 1584-12-01 destination Haarlem   
 9          5 Daniel van der Meulen 1585-02-01 start       Haarlem   
10          5 Daniel van der Meulen 1585-02-01 destination Delft     
# ℹ 116 more rows
…
The result, as before, is a sf data frame with two columns: journey_id and geometry. We can get back the attribute columns for the journeys by joining movements_long_sf and movements_wide, being careful to place movements_long_sf as the first data frame so that the result is an sf object.

journeys_sf <- left_join(movements_long_sf, movements_wide, by = "journey_id")
journeys_sf

Simple feature collection with 63 features and 5 fields
Geometry type: LINESTRING
Dimension:     XY
Bounding box:  xmin: -0.1276474 ymin: 50.11064 xmax: 10.00991 ymax: 53.59979
Geodetic CRS:  WGS 84
# A tibble: 63 × 6
   journey_id                       geometry person start destination date      
        <int>               <LINESTRING [°]> <chr>  <chr> <chr>       <date>    
 1          1 (4.399708 51.22111, 3.613696 … Danie… Antw… Middelburg  1584-08-01
 2          2 (3.613696 51.49973, 4.362724 … Danie… Midd… Delft       1584-09-01
 3          3 (4.399708 51.22111, 4.481109 … Jan d… Antw… Leiden      1584-11-01
 4          4 (4.362724 51.99946, 4.64356 5… Danie… Delft Haarlem     1584-12-01
 5          5 (4.64356 52.38371, 4.362724 5… Danie… Haar… Delft       1585-02-01
 6          6 (4.399708 51.22111, 8.807165 … Andri… Antw… Bremen      1585-09-01
 7          7 (4.399708 51.22111, 8.807165 … Sara … Antw… Bremen      1585-09-01
 8          8 (4.64356 52.38371, 4.399708 5… Anna … Haar… Antwerp     1585-09-01
 9          9 (4.686789 51.76895, 4.399708 … Steve… Dord… Antwerp     1585-09-01
10         10 (4.64356 52.38371, 10.00991 5… Jacqu… Haar… Hamburg     1585-10-01
# ℹ 53 more rows
…
