Interactive tables in Quarto – Digital History Methods
…
Examples

Let’s show examples using the movements of two sibling groups at the end of the 16th century.

library(tidyverse)
library(DT)
library(reactable)

movements <- read_csv("https://raw.githubusercontent.com/jessesadler/vt5444s26/refs/heads/main/datasets/movements.csv")

Regular tibble output

movements

# A tibble: 74 × 3
   person                 place     date      
   <chr>                  <chr>     <date>    
 1 Andries van der Meulen Antwerp   1584-07-01
 2 Andries van der Meulen Bremen    1585-09-01
 3 Anna van der Meulen    Cologne   1584-07-01
 4 Anna van der Meulen    Bremen    1588-06-01
 5 Anna van der Meulen    Stade     1588-08-01
 6 Anna van der Meulen    Bremen    1592-03-01
 7 Sara van der Meulen    Antwerp   1584-07-01
 8 Sara van der Meulen    Bremen    1585-09-01
 9 Sara van der Meulen    Frankfurt 1586-03-01
10 Sara van der Meulen    Cologne   1586-05-01
# ℹ 64 more rows
…
