Wrangling data in the tidyverse – Digital History Methods
…
# Movements of the siblings
movements

# A tibble: 74 × 3
   person                 place     date      
   <chr>                  <chr>     <date>    
 1 Andries van der Meulen Antwerp   1584-07-01
 2 Andries van der Meulen Bremen    1585-09-01
 3 Anna van der Meulen    Cologne   1584-07-01
 4 Anna van der Meulen    Bremen    1588-06-01
 5 Anna van der Meulen    Stade     1588-08-01
 6 Anna van der Meulen    Bremen    1592-03-01
 7 Sara van der Meulen    Antwerp   1584-07-01
 8 Sara van der Meulen    Bremen    1585-09-01
 9 Sara van der Meulen    Frankfurt 1586-03-01
10 Sara van der Meulen    Cologne   1586-05-01
# ℹ 64 more rows

# Latitude and longitude of the locations of the siblings
locations

# A tibble: 21 × 3
   location          lat   lng
   <chr>           <dbl> <dbl>
 1 Antwerp          51.2  4.40
 2 Bremen           53.1  8.81
 3 Cologne          50.9  6.96
 4 Stade            53.6  9.48
 5 Frankfurt        50.1  8.68
 6 Utrecht          52.1  5.13
 7 Leiden           52.2  4.48
 8 Geertruidenberg  51.7  4.85
 9 Bergen op Zoom   51.5  4.29
10 The Hague        52.1  4.31
# ℹ 11 more rows
…
right_join()
Keep all observations in the second (right) data frame.

full_join()
Keep all observations from both data frames.

inner_join()
Only keep observations that are in both data frames, dropping rows that do not have a match.

Let’s start with a left join between religion and movements:

left_join(religion, movements, by = "person")

# A tibble: 76 × 4
   person                   religion  place      date      
   <chr>                    <chr>     <chr>      <date>    
 1 Elizabeth Zeghers        Calvinist <NA>       NA        
 2 Jan della Faille de Oude Catholic  <NA>       NA        
 3 Andries van der Meulen   Calvinist Antwerp    1584-07-01
 4 Andries van der Meulen   Calvinist Bremen     1585-09-01
 5 Daniel van der Meulen    Calvinist Antwerp    1584-07-01
 6 Daniel van der Meulen    Calvinist Middelburg 1584-08-01
 7 Daniel van der Meulen    Calvinist Delft      1584-09-01
 8 Daniel van der Meulen    Calvinist Haarlem    1584-12-01
 9 Daniel van der Meulen    Calvinist Delft      1585-02-01
10 Daniel van der Meulen    Calvinist Bremen     1585-10-01
# ℹ 66 more rows

The NAs for place and date for Elizabeth Zeghers and Jan della Faille de Oude show that there is no movement data for these individuals. We could drop these by doing a right join instead. Note the different in the number of rows. An alternative would be to switch the position of the dataframes within the left_join().

right_join(religion, movements, by = "person")

# A tibble: 74 × 4
   person                 religion  place      date      
   <chr>                  <chr>     <chr>      <date>    
 1 Andries van der Meulen Calvinist Antwerp    1584-07-01
 2 Andries van der Meulen Calvinist Bremen     1585-09-01
 3 Daniel van der Meulen  Calvinist Antwerp    1584-07-01
 4 Daniel van der Meulen  Calvinist Middelburg 1584-08-01
 5 Daniel van der Meulen  Calvinist Delft      1584-09-01
 6 Daniel van der Meulen  Calvinist Haarlem    1584-12-01
 7 Daniel van der Meulen  Calvinist Delft      1585-02-01
 8 Daniel van der Meulen  Calvinist Bremen     1585-10-01
 9 Daniel van der Meulen  Calvinist Middelburg 1586-05-01
10 Daniel van der Meulen  Calvinist Delft      1586-06-01
# ℹ 64 more rows

Now let’s check joining the movements data frame to the locations data frame. Here we have the complication that our columns to join by have different names. We can use the join_by() function to tell R which columns are equivalent.

left_join(movements, locations,
          by = join_by(place == location))

# A tibble: 74 × 5
   person                 place     date         lat   lng
   <chr>                  <chr>     <date>     <dbl> <dbl>
 1 Andries van der Meulen Antwerp   1584-07-01  51.2  4.40
 2 Andries van der Meulen Bremen    1585-09-01  53.1  8.81
 3 Anna van der Meulen    Cologne   1584-07-01  50.9  6.96
 4 Anna van der Meulen    Bremen    1588-06-01  53.1  8.81
 5 Anna van der Meulen    Stade     1588-08-01  53.6  9.48
 6 Anna van der Meulen    Bremen    1592-03-01  53.1  8.81
 7 Sara van der Meulen    Antwerp   1584-07-01  51.2  4.40
 8 Sara van der Meulen    Bremen    1585-09-01  53.1  8.81
 9 Sara van der Meulen    Frankfurt 1586-03-01  50.1  8.68
10 Sara van der Meulen    Cologne   1586-05-01  50.9  6.96
# ℹ 64 more rows

Let’s now join all three data frames together using the pipe.

religion |> 
  right_join(movements, by = "person") |> 
  left_join(locations,
            by = join_by(place == location))

# A tibble: 74 × 6
   person                 religion  place      date         lat   lng
   <chr>                  <chr>     <chr>      <date>     <dbl> <dbl>
 1 Andries van der Meulen Calvinist Antwerp    1584-07-01  51.2  4.40
 2 Andries van der Meulen Calvinist Bremen     1585-09-01  53.1  8.81
 3 Daniel van der Meulen  Calvinist Antwerp    1584-07-01  51.2  4.40
 4 Daniel van der Meulen  Calvinist Middelburg 1584-08-01  51.5  3.61
 5 Daniel van der Meulen  Calvinist Delft      1584-09-01  52.0  4.36
 6 Daniel van der Meulen  Calvinist Haarlem    1584-12-01  52.4  4.64
 7 Daniel van der Meulen  Calvinist Delft      1585-02-01  52.0  4.36
 8 Daniel van der Meulen  Calvinist Bremen     1585-10-01  53.1  8.81
 9 Daniel van der Meulen  Calvinist Middelburg 1586-05-01  51.5  3.61
10 Daniel van der Meulen  Calvinist Delft      1586-06-01  52.0  4.36
# ℹ 64 more rows
…
